[
  {
    "nama": "Kawanua Indo Digital",
    "keterangan": "Kawanua Indo Digital (disingkat CV KID™) adalah induk organisasi Kawanua ID™ Group, merupakan sebuah perusahaan yang bergerak dibidang industri teknologi dan jasa digital marketing.",
    "logourl": "",
    "imgurl": "/imgs/kawanua-co-1024x768desktop-5524a0.jpg",
    "thumburl": "https://www.kawanua.co",
    "imgalt": "kawanua indo digital logo",
    "urlmuted": "https://www.",
    "url": "kawanua.co",
    "sosmed": true,
    "sosmed1nama": "",
    "sosmed1url": "",
    "sosmed1class": "",
    "sosmed2nama": "@kawanua",
    "sosmed2url": "https://www.x.com/kawanua",
    "sosmed2class": "fab fa-twitter",
    "public": true,
    "odd": true,
    "weight": 1
  },
  {
    "nama": "Kawanua Indie Developer",
    "keterangan": "Kawanua Indie Developer adalah sebuah organisasi nirlaba yang ikut berkontribusi mempromosikan produk open-source, yang dibuat oleh developer lokal Indonesia.",
    "logourl": "",
    "imgurl": "/imgs/kid-or-id-1024x768desktop-852331.jpg",
    "thumburl": "https://kid.or.id",
    "imgalt": "kid.or.id logo",
    "urlmuted": "https://",
    "url": "kid.or.id",
    "sosmed": false,
    "sosmed1nama": "Facebook",
    "sosmed1url": "https://fb.me/manadosehatcom",
    "sosmed1class": "fab fa-facebook",
    "sosmed2nama": "",
    "sosmed2url": "",
    "sosmed2class": "",
    "public": true,
    "odd": false,
    "weight": 2
  },
  {
    "nama": "Kawanua OV Hosting",
    "keterangan": "Kawanua Optimaal Virtueel Hostingplatform (KOVH™) is a leading provider of innovative and high-performance web hosting solutions, specializing in optimal virtual hosting platforms.",
    "logourl": "",
    "imgurl": "/imgs/kawanua-ovh-1024x768desktop-9c3610.jpg",
    "thumburl": "https://kawanua.ovh",
    "imgalt": "kawanua hosting logo",
    "urlmuted": "https://",
    "url": "kawanua.ovh",
    "sosmed": false,
    "sosmed1nama": "",
    "sosmed1url": "",
    "sosmed1class": "",
    "sosmed2nama": "",
    "sosmed2url": "",
    "sosmed2class": "",
    "public": true,
    "odd": true,
    "weight": 3
  }
]
