[
  {
    "title": "Kode Etik",
    "suffix": "",
    "url": "code-of-conduct",
    "public": true,
    "weight": 1
  },
  {
    "title": "Hubungi Kami",
    "suffix": "",
    "url": "https://kontak.kawanua.id",
    "public": true,
    "weight": 2
  }
]